<?xml version="1.0" encoding="UTF-8"?>
<svg width="539px" height="537px" viewBox="0 0 572 537" version="1.1" xmlns="http://www.w3.org/2000/svg" xmlns:xlink="http://www.w3.org/1999/xlink">
    <title>Helfa Logo</title>
    <desc>Helfa logo with centered trunk</desc>
    <g id="Page-1" stroke="none" stroke-width="1" fill="none" fill-rule="evenodd">
        <g id="A4-quer" transform="translate(-87.000000, -70.000000)">
            <g id="HelfaLogo" transform="translate(87.000000, 70.000000)">
                <path d="M440.963,220.0845 L439.163,220.3845 C439.163,220.3845 413.163,223.6845 404.663,231.2845 C401.263,234.3845 398.863,238.9845 397.663,243.0845 C397.063,245.1845 396.763,247.0845 396.963,248.7845 C397.063,249.7845 397.463,250.6845 397.963,251.4845 C396.363,253.6845 395.063,255.9845 394.163,258.6845 L396.863,259.5845 C396.863,259.5845 396.863,259.4845 396.963,259.4845 C397.963,257.3845 399.363,255.1845 400.463,253.3845 C403.663,255.0845 407.763,255.7845 412.263,255.3845 C417.263,254.9845 422.663,253.1845 427.163,249.9845 C436.563,241.4845 439.963,231.0845 440.963,220.0845" id="Fill-3" fill="#3E8E18"></path>
                <path d="M524.363,204.6845 L523.663,206.3845 C523.663,206.3845 515.563,231.3845 506.463,238.1845 C502.863,240.9845 497.863,242.4845 493.563,242.8845 C491.363,243.0845 489.463,242.9845 487.763,242.4845 C486.763,242.1845 485.963,241.6845 485.263,240.9845 C482.863,242.0845 480.263,242.9845 477.463,243.3845 L477.063,240.4845 L477.163,240.4845 C479.363,239.8845 481.763,238.9845 483.863,238.1845 C482.763,234.6845 482.863,230.4845 484.063,226.2845 C485.463,221.3845 488.163,216.4845 492.163,212.6845 C502.463,204.9845 513.363,203.5845 524.363,204.6845" id="Fill-4" fill="#3E8E18"></path>
                <path d="M504.763,235.9846 C501.763,238.2846 497.163,239.6846 493.263,240.0846 C491.863,240.1846 489.763,240.1846 488.163,239.6846 C491.063,237.9846 498.763,230.8846 508.263,218.7846 C500.463,225.3846 494.063,232.8846 486.663,237.1846 C485.863,234.4846 485.963,230.8846 486.963,227.0846 C488.163,222.6846 489.963,218.2846 493.763,215.0846 C502.263,208.0846 510.063,206.8846 521.963,206.1846 C517.563,217.9846 512.363,230.2846 504.763,235.9846 M400.463,243.8846 C401.463,240.1846 403.763,235.8846 406.663,233.3846 C413.663,226.9846 426.663,224.1846 439.163,222.0846 C436.263,233.5846 433.663,241.0846 425.163,248.0846 C421.363,251.1846 416.663,252.0846 412.063,252.4846 C408.163,252.7846 404.663,252.1846 402.163,250.8846 C407.863,244.3846 416.363,239.4846 424.263,233.0846 C410.663,240.0846 402.263,246.3846 399.963,248.8846 C399.663,247.3846 400.063,245.2846 400.463,243.8846 M492.263,212.6846 C488.263,216.4846 485.563,221.3846 484.163,226.2846 C482.963,230.4846 482.863,234.5846 483.863,237.9846 C480.663,238.7846 473.963,241.3846 461.263,248.8846 C446.763,258.7846 434.763,258.5846 419.963,258.7846 C412.463,258.8846 404.963,258.4846 397.663,257.9846 C398.563,256.3846 399.563,254.7846 400.463,253.3846 C403.663,255.0846 407.763,255.7846 412.263,255.3846 C417.263,254.9846 422.663,253.1846 427.163,249.9846 C436.563,241.3846 440.063,230.9846 441.063,219.9846 L439.263,220.2846 C439.263,220.2846 413.263,223.5846 404.763,231.1846 C401.363,234.2846 398.963,238.8846 397.763,242.9846 C397.163,245.0846 396.863,246.9846 397.063,248.6846 C397.163,249.6846 397.563,250.5846 398.063,251.3846 C396.663,253.2846 395.463,255.3846 394.663,257.6846 C388.663,257.2846 382.863,256.9846 377.463,256.9846 C364.563,256.9846 353.863,257.9846 347.463,266.5846 C348.963,267.4846 350.263,268.5846 351.463,269.5846 C356.263,263.0846 364.963,261.9846 377.363,261.9846 C389.863,261.9846 404.963,263.8846 420.163,263.6846 C435.463,263.4846 451.063,261.3846 464.163,252.6846 C476.463,244.4846 483.263,242.6846 486.063,241.4846 C486.563,241.8846 487.163,242.1846 487.863,242.3846 C489.463,242.8846 491.463,242.9846 493.663,242.7846 C497.963,242.3846 502.963,240.8846 506.563,238.0846 C515.663,231.1846 523.763,206.2846 523.763,206.2846 L524.463,204.5846 C513.363,203.5846 502.463,204.9846 492.263,212.6846" id="Fill-5" fill="#391910"></path>
                <path d="M489.4,276.1281 L487.6,275.5281 C487.6,275.5281 463,266.2281 452,269.0281 C447.6,270.1281 443.3,273.1281 440.3,276.2281 C438.8,277.8281 437.6,279.4281 437,280.9281 C436.6,281.8281 436.5,282.8281 436.6,283.7281 C434.2,284.9281 431.9,286.3281 429.9,288.3281 L431.9,290.4281 L432,290.3281 C433.8,288.9281 436.1,287.7281 438,286.6281 C440,289.6281 443.4,292.2281 447.5,293.9281 C452.2,295.9281 457.7,296.8281 463.2,296.1281 C475.5,293.0281 483.4,285.4281 489.4,276.1281" id="Fill-6" fill="#3E8E18"></path>
                <path d="M338,134.3281 L336.1,134.5281 C336.1,134.5281 308.8,135.6281 299.3,142.8281 C295.5,145.7281 292.6,150.3281 291,154.5281 C290.2,156.6281 289.7,158.6281 289.7,160.4281 C289.7,161.4281 290,162.4281 290.5,163.3281 C288.7,165.4281 287.1,167.7281 285.9,170.4281 L288.7,171.6281 L288.8,171.5281 C290,169.4281 291.6,167.3281 293,165.5281 C296.2,167.6281 300.4,168.6281 305,168.6281 C310.3,168.6281 316,167.3281 320.9,164.3281 C331.5,156.2281 336,145.7281 338,134.3281" id="Fill-7" fill="#3E8E18"></path>
                <path d="M233.5,165.2281 L235.4,165.4281 C235.4,165.4281 262.7,166.5281 272.2,173.7281 C276,176.6281 278.9,181.2281 280.5,185.4281 C281.3,187.5281 281.8,189.5281 281.8,191.3281 C281.8,192.3281 281.5,193.3281 281,194.2281 C282.8,196.3281 284.4,198.6281 285.6,201.3281 L282.8,202.5281 L282.7,202.4281 C281.5,200.3281 279.9,198.2281 278.5,196.4281 C275.3,198.5281 271.1,199.5281 266.5,199.5281 C261.2,199.5281 255.5,198.2281 250.6,195.2281 C240,187.0281 235.5,176.5281 233.5,165.2281" id="Fill-8" fill="#3E8E18"></path>
                <path d="M397.2,144.7281 L395.5,145.6281 C395.5,145.6281 371.6,156.5281 365.8,166.3281 C363.5,170.2281 362.5,175.4281 362.7,179.7281 C362.8,181.9281 363.1,183.8281 363.7,185.4281 C364.1,186.3281 364.7,187.1281 365.5,187.7281 C364.7,190.2281 364.1,192.9281 364,195.7281 L366.9,195.7281 L366.9,195.6281 C367.2,193.3281 367.9,190.8281 368.5,188.7281 C372.1,189.4281 376.2,188.8281 380.3,187.1281 C385,185.2281 389.6,181.9281 392.9,177.5281 C399.3,166.5281 399.5,155.5281 397.2,144.7281" id="Fill-9" fill="#3E8E18"></path>
                <path d="M177.3,147.5281 L179,148.4281 C179,148.4281 202.9,159.3281 208.7,169.1281 C211,173.0281 212,178.2281 211.8,182.5281 C211.7,184.7281 211.4,186.6281 210.8,188.2281 C210.4,189.1281 209.8,189.9281 209,190.5281 C209.8,193.0281 210.4,195.7281 210.5,198.5281 L207.6,198.5281 L207.6,198.4281 C207.3,196.1281 206.6,193.6281 206,191.5281 C202.4,192.2281 198.3,191.6281 194.2,189.9281 C189.5,188.0281 184.9,184.7281 181.6,180.3281 C175.1,169.3281 174.9,158.4281 177.3,147.5281" id="Fill-10" fill="#3E8E18"></path>
                <path d="M157.4,183.8281 C166.9,175.6281 170.6,158.9281 163.7,147.8281 C152.8,130.3281 150.3,127.6281 143.8,118.3281 C136.4,107.7281 135,97.6281 129.8,91.3281 C126.8,86.7281 119.3,87.3281 119.8,93.0281 C120.6,98.9281 131.7,118.5281 127.5,119.3281 C123.3,120.2281 112.7,90.5281 104.8,83.0281 C98.5,78.4281 93,78.2281 95.5,86.9281 C98.3,96.7281 115,119.9281 110.2,121.7281 C105.4,123.5281 91.9,94.3281 80.6,89.6281 C72.7,86.0281 70.5,90.9281 72.9,96.6281 C76.4,104.7281 99.3,126.5281 96.3,130.8281 C93.2,135.1281 76.4,117.1281 67.7,112.7281 C59.7,109.3281 56,114.6281 60.4,120.5281 C68.6,131.3281 83.8,140.7281 94,151.6281 C97,154.7281 105.9,160.2281 105.2,164.5281 C104.8,166.8281 102.2,168.2281 100,169.0281 C89.7,169.0281 86.6,168.4281 82.4,169.0281 C72.7,171.8281 74.7,179.2281 79.2,181.5281 C85,184.3281 99.4,180.4281 108.7,183.3281 C124.9,188.4281 141.2,197.8281 157.4,183.8281" id="Fill-11" fill="#3E8E18"></path>
                <path d="M99.2,181.1281 C102.7,181.1281 106.2,181.4281 109.1,182.3281 C111.6,183.1281 114.1,184.0281 116.6,184.9281 C130.4,189.8281 143.4,194.5281 156.7,183.0281 L157.4,183.8281 L156.7,183.0281 C166.3,174.7281 169.2,158.4281 162.8,148.3281 C154.7,135.4281 151.4,130.6281 147.4,125.2281 C146,123.3281 144.6,121.3281 142.9,118.9281 C139,113.3281 136.8,107.9281 134.8,103.2281 C133,98.8281 131.4,94.9281 128.9,92.0281 L128.8,91.9281 C127.3,89.6281 124.5,88.9281 122.6,89.5281 C121.2,90.0281 120.4,91.2281 120.6,92.9281 C120.9,95.0281 122.7,99.4281 124.5,103.6281 C128,111.9281 130.1,117.1281 128.9,119.3281 C128.6,119.9281 128.1,120.2281 127.5,120.4281 C124.7,121.0281 121.7,115.2281 116.1,104.1281 C112.2,96.3281 107.7,87.4281 104,83.8281 C100.2,81.0281 97.5,80.5281 96.5,81.2281 C95.6,81.8281 95.5,83.8281 96.4,86.7281 C97.5,90.5281 100.9,96.6281 104.1,102.5281 C109.6,112.4281 112.8,118.7281 111.8,121.4281 C111.6,122.0281 111.1,122.5281 110.5,122.8281 C107.6,123.9281 104.3,119.3281 98.1,110.4281 C92.7,102.7281 86,93.1281 80.2,90.7281 C77.2,89.3281 74.9,89.2281 73.8,90.3281 C72.7,91.4281 72.7,93.8281 73.8,96.4281 C75.2,99.6281 80,105.4281 84.7,111.0281 C93.7,121.8281 99.2,128.6281 97,131.6281 C96.6,132.2281 96,132.5281 95.2,132.6281 C92.2,133.0281 87.2,129.1281 79.3,122.7281 C74.9,119.1281 70.3,115.4281 67.1,113.7281 C63.9,112.3281 61.2,112.4281 60,113.9281 C58.9,115.3281 59.4,117.7281 61.1,120.0281 C65.6,125.9281 72.2,131.4281 79.2,137.2281 C84.5,141.6281 90.1,146.2281 94.6,151.0281 C95.4,151.8281 96.7,152.9281 98.1,154.0281 C102.2,157.3281 106.7,161.1281 106.1,164.7281 C105.6,167.4281 102.7,169.1281 100.3,170.0281 L100.1,170.1281 L99.9,170.1281 L99.7,170.1281 C95.6,170.1281 92.7,170.0281 90.3,169.9281 C86.9,169.8281 84.8,169.7281 82.4,170.0281 C78.7,171.1281 76.5,173.0281 76.3,175.4281 C76.1,177.4281 77.4,179.6281 79.5,180.6281 C82.1,181.9281 86.9,181.6281 92.1,181.4281 C94.6,181.3281 96.9,181.1281 99.2,181.1281 M138.5,192.1281 C130.9,192.1281 123.4,189.4281 116,186.8281 C113.6,185.9281 111,185.0281 108.6,184.3281 C104,182.9281 97.9,183.2281 92.5,183.4281 C86.9,183.7281 82,183.9281 78.9,182.4281 C76.1,181.0281 74.4,178.0281 74.6,175.2281 C74.8,173.3281 76,169.9281 82.2,168.0281 L82.3,168.0281 C84.9,167.6281 87,167.7281 90.6,167.8281 C92.9,167.9281 95.9,168.0281 99.9,168.0281 C101.5,167.4281 104,166.2281 104.3,164.3281 C104.7,161.8281 100.2,158.2281 97,155.5281 C95.6,154.3281 94.2,153.2281 93.4,152.3281 C88.9,147.6281 83.5,143.0281 78.2,138.7281 C71.4,133.1281 64.4,127.3281 59.7,121.2281 C57.3,118.0281 56.9,114.8281 58.6,112.6281 C60.4,110.3281 64,110.0281 68.1,111.8281 C71.6,113.6281 76.3,117.4281 80.7,121.0281 C86,125.3281 92.7,130.7281 95,130.4281 C95.2,130.4281 95.3,130.3281 95.4,130.2281 C96.7,128.3281 88.2,118.2281 83.1,112.1281 C78.1,106.1281 73.4,100.5281 71.9,97.0281 C70.4,93.5281 70.5,90.4281 72.3,88.7281 C73.5,87.5281 76,86.5281 80.9,88.7281 C87.2,91.3281 93.8,100.8281 99.6,109.1281 C103,114.0281 108.2,121.3281 109.7,120.8281 C109.8,120.8281 109.8,120.8281 109.9,120.6281 C110.7,118.5281 106,110.1281 102.3,103.3281 C99,97.3281 95.6,91.2281 94.4,87.1281 C93.3,83.2281 93.6,80.6281 95.3,79.4281 C97.3,78.0281 100.9,79.0281 105.2,82.1281 L105.3,82.2281 C109.3,86.0281 113.6,94.7281 117.9,103.1281 C120.9,109.1281 125.5,118.3281 127.1,118.3281 C128.2,117.2281 124.5,108.5281 122.7,104.3281 C120.8,99.8281 119,95.5281 118.6,93.1281 C118.4,90.4281 119.6,88.4281 121.9,87.6281 C124.4,86.7281 128.3,87.5281 130.4,90.7281 C133,93.9281 134.7,97.8281 136.6,102.4281 C138.5,107.1281 140.7,112.4281 144.5,117.7281 C146.2,120.1281 147.6,122.1281 148.9,124.0281 C152.8,129.5281 156.2,134.3281 164.3,147.2281 C171.1,158.1281 168.1,175.6281 157.8,184.5281 C151.5,190.2281 145,192.1281 138.5,192.1281" id="Fill-12" fill="#391910"></path>
                <path d="M182.9,229.2281 L184.4,228.1281 C184.4,228.1281 205.1,212.0281 216.5,211.4281 C221.1,211.2281 226,212.7281 229.8,214.8281 C231.7,215.9281 233.3,217.0281 234.4,218.3281 C235,219.1281 235.4,220.0281 235.6,220.9281 C238.2,221.3281 240.8,222.0281 243.4,223.3281 L242.1,225.9281 C242.1,225.9281 242,225.9281 242,225.8281 C239.8,225.0281 237.3,224.5281 235.2,224.0281 C234.2,227.5281 231.7,230.9281 228.3,233.8281 C224.4,237.1281 219.4,239.6281 214,240.5281 C201.2,241.2281 191.4,236.3281 182.9,229.2281" id="Fill-13" fill="#3E8E18"></path>
                <path d="M387.7,230.2281 L386.2,229.1281 C386.2,229.1281 365.5,213.0281 354.1,212.4281 C349.5,212.2281 344.6,213.7281 340.8,215.8281 C338.9,216.9281 337.3,218.0281 336.2,219.3281 C335.6,220.1281 335.2,221.0281 335,221.9281 C332.4,222.3281 329.8,223.0281 327.2,224.3281 L328.5,226.9281 C328.5,226.9281 328.6,226.9281 328.6,226.8281 C330.8,226.0281 333.3,225.5281 335.4,225.0281 C336.4,228.5281 338.9,231.9281 342.3,234.8281 C346.2,238.1281 351.2,240.6281 356.6,241.5281 C369.4,242.2281 379.2,237.3281 387.7,230.2281" id="Fill-14" fill="#3E8E18"></path>
                <path d="M142.3,337.0281 L142.6,335.2281 C142.6,335.2281 145.9,309.2281 153.5,300.7281 C156.6,297.3281 161.2,294.9281 165.3,293.7281 C167.4,293.1281 169.3,292.8281 171,293.0281 C172,293.1281 172.9,293.5281 173.7,294.0281 C175.9,292.4281 178.2,291.1281 180.9,290.2281 L181.8,292.9281 C181.8,292.9281 181.7,292.9281 181.7,293.0281 C179.6,294.0281 177.4,295.4281 175.6,296.5281 C177.3,299.7281 178,303.8281 177.6,308.3281 C177.2,313.3281 175.4,318.7281 172.2,323.2281 C163.8,332.6281 153.3,336.0281 142.3,337.0281" id="Fill-15" fill="#3E8E18"></path>
                <path d="M84.1,275.7281 L85.9,275.1281 C85.9,275.1281 110.5,266.0281 121.5,268.8281 C125.9,269.9281 130.2,272.9281 133.2,276.1281 C134.7,277.7281 135.8,279.3281 136.5,280.9281 C136.9,281.8281 137,282.8281 136.9,283.8281 C139.3,285.0281 141.6,286.4281 143.6,288.4281 L141.6,290.5281 L141.5,290.4281 C139.7,289.0281 137.4,287.7281 135.5,286.6281 C133.5,289.6281 130.1,292.1281 126,293.8281 C121.3,295.8281 115.8,296.7281 110.3,295.9281 C98,292.6281 90.1,285.0281 84.1,275.7281" id="Fill-16" fill="#3E8E18"></path>
                <path d="M428.7,335.2281 L428.4,333.4281 C428.4,333.4281 425.1,307.4281 417.5,298.9281 C414.4,295.5281 409.8,293.1281 405.7,291.9281 C403.6,291.3281 401.7,291.0281 400,291.2281 C399,291.3281 398.1,291.7281 397.3,292.2281 C395.1,290.6281 392.8,289.3281 390.1,288.4281 L389.2,291.1281 C389.2,291.1281 389.3,291.1281 389.3,291.2281 C391.4,292.2281 393.6,293.6281 395.4,294.7281 C393.7,297.9281 393,302.0281 393.4,306.5281 C393.8,311.5281 395.6,316.9281 398.8,321.4281 C407.3,330.8281 417.7,334.2281 428.7,335.2281" id="Fill-17" fill="#3E8E18"></path>
                <path d="M174.9,308.0281 C174.5,312.5281 173.6,317.2281 170.5,321.1281 C163.5,329.6281 156,332.3281 144.5,335.1281 C146.6,322.7281 149.4,309.7281 155.8,302.6281 C158.3,299.8281 162.6,297.5281 166.3,296.4281 C167.7,296.0281 169.7,295.6281 171.4,295.9281 C168.9,298.2281 162.6,306.5281 155.6,320.2281 C162,312.3281 166.9,303.7281 173.4,298.1281 C174.6,300.6281 175.2,304.1281 174.9,308.0281 M105.1,279.6281 C115.1,281.6281 124.9,282.0281 133,285.1281 C131.4,287.4281 128.5,289.6281 124.9,291.1281 C120.7,292.9281 116.1,294.2281 111.3,293.2281 C100.5,290.9281 94.7,285.5281 86.8,276.6281 C98.8,272.7281 111.6,269.2281 120.8,271.6281 C124.5,272.5281 128.5,275.3281 131.1,278.1281 C132.1,279.2281 133.4,280.8281 133.9,282.4281 C130.8,281.2281 120.5,279.5281 105.1,279.6281 M198.5,295.2281 C186.7,288.4281 177.1,284.2281 165.5,283.5281 C161.6,283.3281 157.8,283.5281 154,284.3281 C150.4,285.1281 146.9,286.3281 143.4,288.1281 C141.4,286.2281 139.2,284.8281 136.8,283.6281 C136.9,282.7281 136.8,281.7281 136.4,280.7281 C135.8,279.1281 134.6,277.5281 133.1,275.9281 C130.1,272.8281 125.8,269.8281 121.4,268.6281 C110.4,265.7281 85.8,274.9281 85.8,274.9281 L84,275.5281 C90,284.8281 97.8,292.5281 110.2,295.7281 C115.7,296.5281 121.2,295.6281 125.9,293.6281 C130,291.9281 133.4,289.4281 135.4,286.4281 C137,287.3281 138.9,288.4281 140.6,289.6281 C130.4,295.8281 120.9,307.0281 112.1,324.5281 C117.3,315.3281 137,293.3281 154.9,289.1281 C162.7,287.5281 170.1,288.4281 177.9,291.2281 C176.4,291.9281 175,292.8281 173.7,293.7281 C172.9,293.2281 172,292.8281 171,292.7281 C169.3,292.5281 167.3,292.8281 165.3,293.4281 C161.1,294.6281 156.5,297.0281 153.5,300.4281 C145.9,308.8281 142.6,334.9281 142.6,334.9281 L142.3,336.7281 C153.3,335.7281 163.7,332.3281 172.3,322.8281 C175.5,318.3281 177.3,313.0281 177.7,307.9281 C178.1,303.5281 177.4,299.3281 175.7,296.1281 C177.5,294.9281 179.7,293.5281 181.8,292.6281 L181.9,292.6281 C186.3,294.5281 190.9,296.9281 195.7,299.7281 C196.8,298.2281 197.5,296.8281 198.5,295.2281" id="Fill-18" fill="#391910"></path>
                <path d="M462.2,293.5281 L462.2,293.5281 C457.4,294.4281 452.8,293.1281 448.6,291.3281 C445,289.8281 442.2,287.6281 440.5,285.3281 C448.6,282.2281 458.4,281.9281 468.4,279.9281 C453.1,279.7281 442.7,281.4281 439.5,282.5281 C440.1,280.9281 441.4,279.3281 442.4,278.2281 C445,275.4281 449.1,272.7281 452.7,271.8281 C461.9,269.5281 474.7,273.0281 486.7,277.0281 C478.8,285.9281 473,291.3281 462.2,293.5281 M397.7,296.3281 C404.2,302.0281 409.1,310.5281 415.5,318.4281 C408.5,304.8281 402.2,296.4281 399.7,294.1281 C401.4,293.8281 403.4,294.2281 404.8,294.6281 C408.5,295.6281 412.8,297.9281 415.3,300.8281 C421.7,307.8281 424.5,320.8281 426.6,333.3281 C415.1,330.4281 407.6,327.8281 400.6,319.3281 C397.5,315.5281 396.6,310.8281 396.2,306.2281 C395.8,302.3281 396.5,298.8281 397.7,296.3281 M489.4,276.1281 L487.6,275.5281 C487.6,275.5281 463,266.2281 452,269.0281 C447.6,270.1281 443.3,273.1281 440.3,276.2281 C438.8,277.8281 437.6,279.4281 437,280.9281 C436.6,281.8281 436.5,282.8281 436.6,283.7281 C434.7,284.7281 432.8,285.8281 431.1,287.2281 C427.3,285.1281 423.5,283.7281 419.6,282.9281 C415.8,282.1281 412,281.9281 408.1,282.1281 C396.5,282.8281 385.3,287.4281 373.6,294.1281 C374.9,295.9281 375.4,297.0281 376.3,298.3281 C381.1,295.5281 385.7,293.2281 390.3,291.4281 C392.1,292.3281 393.9,293.5281 395.4,294.4281 C393.7,297.6281 393,301.7281 393.4,306.2281 C393.8,311.2281 395.6,316.6281 398.8,321.1281 C407.4,330.5281 417.8,334.0281 428.8,335.0281 L428.5,333.2281 C428.5,333.2281 425.2,307.2281 417.6,298.7281 C414.5,295.3281 409.9,292.9281 405.8,291.7281 C403.7,291.1281 401.8,290.8281 400.1,291.0281 C399.1,291.1281 398.2,291.5281 397.4,292.0281 C396.4,291.3281 395.4,290.6281 394.3,290.0281 C402.7,287.1281 410.8,286.1281 418.8,287.8281 C436.7,292.0281 456.5,314.0281 461.6,323.2281 C453.2,306.3281 443.9,295.2281 434.1,288.9281 C435.5,288.0281 436.9,287.2281 438.1,286.5281 C440.1,289.5281 443.5,292.1281 447.6,293.8281 C452.3,295.8281 457.8,296.7281 463.3,296.0281 C475.5,293.0281 483.4,285.4281 489.4,276.1281" id="Fill-19" fill="#391910"></path>
                <path d="M232.4,223.5281 C231.5,226.2281 229.5,229.1281 226.5,231.6281 C223,234.5281 219,237.2281 214.2,237.7281 C203.2,238.7281 196.1,235.4281 185.8,229.2281 C196.1,221.9281 207.3,214.7281 216.7,214.2281 C220.5,214.0281 225.1,215.4281 228.5,217.3281 C229.8,218.0281 231.5,219.2281 232.5,220.6281 C229.1,220.4281 218.8,221.9281 204.1,226.6281 C214.2,225.5281 223.7,223.0281 232.4,223.5281 M205.2,188.7281 C202.4,189.2281 198.9,188.7281 195.2,187.2281 C191,185.5281 186.8,183.2281 184.1,179.1281 C178.1,169.8281 177.8,161.9281 178.5,150.1281 C189.8,155.8281 201.3,162.4281 206.2,170.5281 C208.1,173.8281 209.1,178.5281 209,182.3281 C209,183.8281 208.7,185.8281 208,187.4281 C206.6,184.3281 200.5,175.8281 189.5,165.1281 C195,173.6281 201.7,180.8281 205.2,188.7281 M261.1,249.9281 C247,220.4281 238.2,209.6281 223.1,201.8281 C219.4,199.9281 215.1,198.5281 210.4,197.4281 C210.2,195.0281 209.7,192.6281 209,190.4281 C209.8,189.8281 210.4,189.1281 210.8,188.1281 C211.5,186.5281 211.8,184.6281 211.8,182.4281 C211.9,178.1281 211,172.9281 208.7,169.0281 C202.9,159.2281 179,148.3281 179,148.3281 L177.3,147.4281 C174.9,158.2281 175.1,169.2281 181.6,180.2281 C184.9,184.6281 189.5,187.9281 194.2,189.8281 C198.3,191.5281 202.5,192.1281 206,191.4281 C206.4,193.0281 206.9,194.9281 207.3,196.7281 C193.4,193.9281 176.2,192.3281 157.4,183.7281 C167.9,196.5281 206.3,198.9281 220.8,206.1281 C228.2,210.0281 234,214.2281 239.9,221.9281 C238.5,221.5281 237.1,221.2281 235.7,220.9281 C235.5,220.0281 235.1,219.1281 234.5,218.3281 C233.4,217.0281 231.8,215.8281 229.9,214.8281 C226.1,212.7281 221.1,211.1281 216.6,211.4281 C205.2,212.0281 184.5,228.1281 184.5,228.1281 L183,229.2281 C191.5,236.3281 201.3,241.2281 214,240.6281 C219.5,239.7281 224.5,237.2281 228.3,233.9281 C231.7,231.0281 234.1,227.6281 235.2,224.1281 C237.3,224.6281 239.9,225.1281 242,225.9281 C242,225.9281 242.1,225.9281 242.1,226.0281 L242.3,225.5281 C246.6,231.8281 251.1,240.0281 256.5,251.3281 C258,250.7281 259.6,250.3281 261.1,249.9281" id="Fill-20" fill="#391910"></path>
                <path d="M342.2,218.3281 C345.5,216.4281 350.2,215.1281 354,215.2281 C363.5,215.7281 374.7,222.9281 384.9,230.2281 C374.7,236.3281 367.5,239.7281 356.5,238.7281 C351.6,238.2281 347.6,235.5281 344.2,232.6281 C341.2,230.1281 339.2,227.1281 338.3,224.5281 C346.9,223.9281 356.4,226.5281 366.5,227.6281 C351.9,222.9281 341.5,221.4281 338.1,221.6281 C339.2,220.2281 340.9,219.0281 342.2,218.3281 M368.3,167.7281 C373.1,159.5281 384.7,152.9281 396,147.3281 C396.7,159.2281 396.4,167.1281 390.4,176.3281 C387.7,180.4281 383.5,182.7281 379.3,184.4281 C375.7,185.9281 372.1,186.3281 369.3,185.9281 C372.8,178.0281 379.5,170.8281 385.1,162.3281 C374.2,173.1281 368,181.5281 366.6,184.6281 C365.8,183.1281 365.6,181.0281 365.6,179.5281 C365.5,175.8281 366.4,171.0281 368.3,167.7281 M353,203.4281 C367.5,196.2281 405.9,193.8281 416.4,181.0281 C397.9,189.4281 380.9,191.1281 367.2,193.8281 C367.6,192.1281 368,190.3281 368.5,188.7281 C372.1,189.4281 376.2,188.8281 380.3,187.1281 C385,185.2281 389.6,181.9281 392.9,177.5281 C399.4,166.5281 399.6,155.5281 397.2,144.7281 L395.5,145.6281 C395.5,145.6281 371.6,156.5281 365.8,166.3281 C363.5,170.2281 362.5,175.4281 362.7,179.7281 C362.8,181.9281 363.1,183.8281 363.7,185.4281 C364.1,186.3281 364.7,187.1281 365.5,187.7281 C364.8,189.9281 364.3,192.1281 364.1,194.5281 C359.1,195.6281 354.6,197.0281 350.7,199.0281 C335.6,206.8281 325.2,220.3281 311.2,249.8281 C312.9,250.2281 314.5,250.6281 316,251.2281 C320.8,241.1281 325.1,233.2281 329.1,226.8281 C331.1,226.1281 333.5,225.6281 335.4,225.2281 C336.4,228.7281 338.9,232.1281 342.3,235.0281 C346.2,238.3281 351.2,240.8281 356.6,241.7281 C369.3,242.3281 379.1,237.4281 387.6,230.3281 L386.1,229.2281 C386.1,229.2281 365.4,213.1281 354,212.5281 C349.4,212.3281 344.5,213.8281 340.7,215.9281 C338.8,217.0281 337.2,218.1281 336.1,219.4281 C335.5,220.2281 335.1,221.1281 334.9,222.0281 C333.8,222.2281 332.8,222.4281 331.7,222.7281 C338.5,213.1281 345,207.5281 353,203.4281" id="Fill-21" fill="#391910"></path>
                <path d="M319,162.1281 C314.7,165.0281 309.8,165.5281 305.1,165.5281 C301,165.5281 297.4,164.5281 294.9,163.0281 C301.4,156.7281 310.7,152.4281 319.5,146.4281 C304.7,152.5281 295.5,158.3281 292.9,160.7281 C292.8,158.9281 293.4,156.8281 293.9,155.4281 C295.3,151.7281 298.1,147.4281 301.2,145.0281 C309.1,139.0281 322.8,137.2281 336,136.1281 C331.8,148.0281 328.4,155.5281 319,162.1281 M278.7,191.7281 C276.1,189.3281 266.9,183.5281 252.1,177.4281 C260.9,183.4281 270.2,187.7281 276.7,194.0281 C274.2,195.5281 270.6,196.5281 266.5,196.5281 C261.7,196.5281 256.8,195.9281 252.6,193.1281 C243.1,186.5281 239.7,179.0281 235.7,167.3281 C248.8,168.4281 262.6,170.2281 270.5,176.2281 C273.6,178.6281 276.4,182.8281 277.8,186.6281 C278.3,187.8281 278.9,189.9281 278.7,191.7281 M338,134.3281 L336.1,134.5281 C336.1,134.5281 308.8,135.6281 299.3,142.8281 C295.5,145.7281 292.6,150.3281 291,154.5281 C290.2,156.6281 289.7,158.6281 289.7,160.4281 C289.7,161.4281 290,162.4281 290.5,163.3281 C289.8,164.1281 289.2,164.9281 288.6,165.8281 C289,146.9281 288.5,131.3281 284.8,127.6281 C288.1,151.5281 284.7,173.9281 282.8,196.6281 C282.2,195.8281 281.6,195.0281 281,194.2281 C281.5,193.3281 281.8,192.4281 281.8,191.3281 C281.8,189.5281 281.3,187.5281 280.5,185.4281 C278.9,181.2281 276,176.6281 272.2,173.7281 C262.8,166.5281 235.4,165.4281 235.4,165.4281 L233.5,165.2281 C235.5,176.6281 240,187.1281 250.5,195.1281 C255.4,198.1281 261.2,199.4281 266.4,199.4281 C271,199.4281 275.3,198.3281 278.4,196.3281 C279.6,197.9281 281.1,199.9281 282.3,201.7281 C281.2,216.4281 280.9,231.3281 283.7,246.8281 L288.6,246.8281 C284.9,235.8281 287.4,200.8281 288.3,171.4281 L288.5,171.5281 L288.6,171.4281 C289.8,169.3281 291.4,167.2281 292.8,165.4281 C296,167.5281 300.2,168.5281 304.8,168.5281 C310.1,168.5281 315.8,167.2281 320.7,164.2281 C331.5,156.2281 336,145.7281 338,134.3281" id="Fill-22" fill="#391910"></path>
                <path d="M182.7,351.5281 C182.7,401.9281 215.9,441.1281 264.8,454.2281 C264.8,454.2281 255.2,536.9281 238.9,536.9281 L332.6,536.5281 C317.4,537.0281 307.9,454.2281 307.9,454.2281 C354.5,441.3281 390.4,402.1281 390.4,351.5281 C354.1,478.3281 215,474.6281 182.7,351.5281" id="Fill-23" fill="#391910"></path>
                <path d="M112.2,324.7281 C119.8,334.7281 119.9,351.8281 110.9,361.2281 C96.6,376.1281 93.6,378.2281 85.3,385.9281 C75.9,394.8281 72.4,404.3281 66,409.4281 C62.1,413.3281 54.9,411.1281 56.6,405.7281 C58.6,400.1281 73.5,383.3281 69.6,381.5281 C65.6,379.8281 49.2,406.6281 39.8,412.3281 C32.7,415.5281 27.3,414.6281 31.6,406.5281 C36.4,397.5281 57.6,378.3281 53.2,375.5281 C48.8,372.7281 29.6,398.5281 17.6,400.7281 C9.2,402.6281 8,397.3281 11.6,392.3281 C16.7,385.1281 43.7,368.5281 41.6,363.7281 C39.5,358.9281 19.3,372.9281 9.9,375.4281 C1.4,377.1281 -1.2,371.1281 4.4,366.2281 C14.7,357.4281 31.5,351.3281 43.8,342.8281 C47.3,340.3281 57.3,336.9281 57.5,332.6281 C57.6,330.3281 55.3,328.3281 53.4,327.1281 C43.3,324.9281 40.1,324.9281 36.1,323.4281 C27.2,318.6281 30.7,311.8281 35.6,310.5281 C41.9,308.9281 55.1,315.8281 64.8,314.9281 C81.4,313.4281 99.3,307.6281 112.2,324.7281" id="Fill-24" fill="#3E8E18"></path>
                <path d="M52.4,374.4281 C52.9,374.4281 53.3,374.5281 53.7,374.8281 C54.3,375.2281 54.6,375.7281 54.7,376.4281 C55.1,379.3281 50.6,384.7281 43.2,393.3281 C38.8,398.4281 34.3,403.6281 32.4,407.1281 C31,409.7281 30.6,411.7281 31.4,412.5281 C32.2,413.4281 35,413.4281 39.3,411.5281 C43.7,408.8281 49.9,401.0281 55.4,394.2281 C63.2,384.5281 67.3,379.5281 70,380.7281 C70.6,381.0281 71,381.4281 71.2,382.0281 C71.9,384.4281 68.8,389.1281 63.6,396.4281 C61,400.1281 58.3,404.0281 57.5,406.0281 C57,407.6281 57.4,408.9281 58.8,409.7281 C60.5,410.7281 63.4,410.6281 65.3,408.7281 L65.4,408.6281 C68.4,406.2281 70.8,402.8281 73.5,398.8281 C76.4,394.6281 79.7,389.8281 84.7,385.1281 C86.9,383.1281 88.6,381.4281 90.4,379.9281 C95.4,375.4281 99.7,371.4281 110.2,360.5281 C118.5,351.9281 119.1,335.4281 111.4,325.3281 C100.9,311.3281 87.1,313.2281 72.6,315.1281 C70,315.4281 67.3,315.8281 64.7,316.1281 C59.6,316.6281 53.5,315.0281 48.1,313.6281 C43.1,312.3281 38.4,311.0281 35.6,311.7281 C33.4,312.3281 31.7,314.1281 31.4,316.2281 C31.1,318.6281 32.8,320.9281 36.3,322.8281 C38.6,323.6281 40.6,324.0281 44,324.6281 C46.4,325.0281 49.3,325.6281 53.4,326.4281 L53.6,326.4281 L53.8,326.5281 C56,327.9281 58.5,330.1281 58.4,332.9281 C58.2,336.6281 53,339.3281 48.3,341.7281 C46.7,342.5281 45.2,343.3281 44.3,343.9281 C38.9,347.7281 32.5,351.0281 26.3,354.2281 C18.3,358.4281 10.7,362.3281 5,367.2281 C2.8,369.1281 1.9,371.4281 2.6,373.0281 C3.4,374.7281 6.1,375.4281 9.6,374.7281 C13.1,373.8281 18.3,371.1281 23.4,368.5281 C32.4,363.9281 38.1,361.2281 41,362.2281 C41.7,362.4281 42.2,362.9281 42.5,363.6281 C44,367.0281 37.2,372.5281 26.1,381.1281 C20.4,385.6281 14.4,390.3281 12.4,393.1281 C10.7,395.4281 10.2,397.8281 11.1,399.1281 C12,400.4281 14.3,400.7281 17.4,400.0281 C23.6,398.8281 32.2,390.9281 39,384.5281 C45.7,378.0281 49.7,374.4281 52.4,374.4281 M33.4,415.1281 C31.9,415.1281 30.7,414.7281 30,413.9281 C28.6,412.4281 28.8,409.8281 30.7,406.2281 C32.7,402.5281 37.3,397.2281 41.8,392.0281 C46.9,386.2281 53.1,378.9281 52.8,376.7281 C52.8,376.6281 52.7,376.5281 52.7,376.5281 C51.3,375.6281 44.7,381.7281 40.4,385.8281 C33,392.7281 24.5,400.6281 17.8,401.8281 C12.6,403.0281 10.4,401.5281 9.4,400.0281 C8,398.0281 8.5,394.9281 10.7,391.8281 C12.9,388.7281 18.7,384.2281 24.8,379.4281 C31,374.5281 41.5,366.3281 40.6,364.2281 C40.6,364.1281 40.5,364.0281 40.3,363.9281 C38.1,363.1281 30.4,367.0281 24.3,370.1281 C19.1,372.7281 13.8,375.5281 10.1,376.5281 C5.6,377.4281 2.2,376.4281 0.9,373.8281 C-0.3,371.4281 0.8,368.2281 3.7,365.7281 C9.6,360.7281 17.6,356.5281 25.4,352.4281 C31.5,349.2281 37.8,345.9281 43.1,342.2281 C44.1,341.5281 45.7,340.7281 47.3,339.8281 C51.1,337.9281 56.2,335.2281 56.3,332.7281 C56.4,330.9281 54.2,329.1281 52.8,328.2281 C48.8,327.4281 46,326.8281 43.6,326.4281 C40.1,325.8281 38,325.4281 35.5,324.5281 L35.4,324.4281 C29.7,321.3281 29.2,317.7281 29.4,315.8281 C29.7,313.0281 32.1,310.4281 35.1,309.6281 C38.4,308.8281 43.1,310.0281 48.6,311.5281 C53.8,312.9281 59.7,314.4281 64.5,314.0281 C67.1,313.8281 69.7,313.4281 72.3,313.1281 C86.8,311.2281 101.7,309.2281 113,324.1281 C121.2,335.0281 120.5,352.7281 111.6,361.9281 C101,372.9281 96.7,376.9281 91.7,381.4281 C90,383.0281 88.2,384.6281 86,386.6281 C81.2,391.1281 78,395.8281 75.1,400.0281 C72.3,404.1281 69.9,407.6281 66.6,410.2281 C63.9,412.9281 60,412.9281 57.7,411.5281 C55.6,410.2281 54.8,408.0281 55.6,405.5281 C56.4,403.2281 59.1,399.4281 61.9,395.3281 C64.5,391.6281 70,383.8281 69.2,382.5281 C67.6,382.2281 61.2,390.2281 57,395.5281 C51.1,402.8281 45,410.4281 40.4,413.3281 L40.3,413.4281 C37.5,414.5281 35.2,415.1281 33.4,415.1281" id="Fill-25" fill="#391910"></path>
                <path d="M284.9,127.5281 C272.3,127.7281 258.4,117.7281 256.2,104.8281 C252.7,84.5281 252.8,80.8281 251.4,69.6281 C249.8,56.8281 244.2,48.3281 243.9,40.1281 C243.1,34.7281 249.1,30.1281 252.5,34.7281 C255.9,39.6281 260.5,61.6281 264.3,59.5281 C268,57.3281 256.2,28.1281 257.1,17.3281 C258.7,9.7281 262.7,5.9281 266.6,14.1281 C271,23.3281 274,51.8281 278.8,49.9281 C283.6,48.0281 274.3,17.3281 279.6,6.3281 C283.1,-1.5719 288,0.5281 290,6.4281 C292.8,14.7281 290.2,46.3281 295.3,47.5281 C300.4,48.7281 301.1,24.1281 304.6,15.0281 C308.3,7.2281 314.6,8.6281 315.2,16.0281 C316.2,29.5281 311.2,46.6281 310.7,61.6281 C310.6,65.9281 307.5,76.0281 310.9,78.7281 C312.7,80.1281 315.6,79.5281 317.8,78.6281 C325.5,71.8281 327.5,69.2281 331,66.9281 C340.1,62.6281 343.5,69.4281 341.7,74.1281 C339.3,80.1281 325.9,86.7281 320.9,95.1281 C312.1,109.3281 306.3,127.2281 284.9,127.5281" id="Fill-26" fill="#3E8E18"></path>
                <path d="M249.2,33.8281 C248.8,33.8281 248.4,33.9281 248,34.1281 C246.2,34.9281 244.5,37.3281 245,40.0281 L245,40.1281 C245.1,43.9281 246.5,47.9281 248.1,52.4281 C249.8,57.3281 251.7,62.8281 252.5,69.5281 C252.9,72.4281 253.1,74.9281 253.4,77.2281 C254.1,83.9281 254.7,89.7281 257.3,104.7281 C259.3,116.4281 272.1,126.6281 284.7,126.6281 L285,126.6281 C302.4,126.2281 309,114.1281 316,101.2281 C317.3,98.9281 318.5,96.5281 319.9,94.3281 C322.5,89.9281 327.4,85.9281 331.8,82.4281 C335.8,79.2281 339.6,76.1281 340.7,73.4281 C341.5,71.3281 341.1,68.8281 339.6,67.4281 C337.9,65.8281 335,65.8281 331.4,67.4281 C329.4,68.7281 327.9,70.2281 325.4,72.5281 C323.7,74.2281 321.5,76.2281 318.4,79.0281 L318.3,79.1281 L318.1,79.2281 C315.7,80.1281 312.4,80.9281 310.3,79.1281 C307.4,76.8281 308.4,70.9281 309.2,65.8281 C309.5,64.0281 309.7,62.4281 309.8,61.3281 C310,54.7281 311.1,47.6281 312.1,40.7281 C313.5,31.7281 314.8,23.3281 314.2,15.8281 C313.9,12.9281 312.7,10.8281 311,10.5281 C309.1,10.2281 307,11.9281 305.5,15.1281 C304.2,18.4281 303.3,24.2281 302.3,29.9281 C300.7,39.9281 299.5,46.1281 297,47.8281 C296.4,48.2281 295.7,48.4281 295,48.2281 C291.4,47.4281 291,38.7281 290.6,24.6281 C290.4,17.3281 290.1,9.8281 289.1,6.5281 C288.2,3.8281 286.6,2.0281 285.1,1.9281 L285,1.9281 C283.5,1.9281 281.9,3.6281 280.6,6.5281 C277.9,12.2281 279.2,23.8281 280.3,33.2281 C281.6,44.0281 282.1,49.6281 279.2,50.7281 C278.6,50.9281 277.9,50.9281 277.3,50.6281 C274.7,49.2281 273,42.4281 270.5,31.3281 C269,24.8281 267.5,18.0281 265.8,14.4281 C264.5,11.7281 263.1,10.2281 262,10.4281 C260.8,10.5281 259.1,12.8281 258.1,17.4281 C257.7,22.5281 260.3,32.1281 262.5,40.6281 C265.7,52.6281 267.3,58.9281 264.8,60.3281 C264.2,60.6281 263.6,60.7281 263,60.4281 C260.6,59.5281 258.7,54.3281 255.9,45.8281 C254.4,41.5281 252.9,37.0281 251.7,35.2281 C251,34.2281 250.1,33.8281 249.2,33.8281 M284.6,128.5281 C271.1,128.5281 257.4,117.6281 255.2,105.0281 C252.6,89.9281 252,84.1281 251.3,77.4281 C251.1,75.1281 250.8,72.7281 250.4,69.7281 C249.6,63.2281 247.7,57.8281 246.1,53.0281 C244.5,48.3281 243.1,44.3281 242.9,40.2281 C242.4,36.4281 244.7,33.3281 247.2,32.2281 C249.5,31.3281 251.8,32.0281 253.3,34.1281 C254.7,36.1281 256.2,40.5281 257.8,45.2281 C259.3,49.5281 262.3,58.5281 263.8,58.6281 C265,57.5281 262.3,47.6281 260.6,41.1281 C258.2,32.0281 255.7,22.6281 256.1,17.2281 L256.1,17.1281 C257.2,11.9281 259.2,8.8281 261.7,8.5281 C263.8,8.3281 265.7,10.0281 267.5,13.7281 C269.3,17.5281 270.9,24.4281 272.4,31.0281 C274.1,38.5281 276.2,47.9281 278.2,49.0281 C278.3,49.1281 278.4,49.0281 278.4,49.0281 C279.9,48.4281 278.9,39.5281 278.2,33.6281 C277,23.5281 275.7,12.1281 278.7,5.9281 C280.8,1.0281 283.4,0.1281 285.1,0.2281 C287.6,0.3281 289.7,2.5281 290.9,6.2281 C292.1,9.8281 292.3,17.1281 292.6,24.9281 C292.8,32.8281 293.2,46.1281 295.5,46.6281 C295.6,46.6281 295.7,46.6281 295.9,46.5281 C297.9,45.2281 299.2,36.7281 300.3,29.9281 C301.2,24.2281 302.2,18.3281 303.6,14.7281 C305.6,10.5281 308.4,8.4281 311.3,8.9281 C314,9.4281 315.8,12.1281 316.2,16.0281 C316.8,23.7281 315.4,32.7281 314.1,41.4281 C313.1,48.2281 312,55.2281 311.8,61.7281 C311.8,63.0281 311.5,64.7281 311.2,66.5281 C310.5,70.7281 309.6,76.4281 311.6,78.0281 C313,79.2281 315.7,78.4281 317.3,77.8281 C320.3,75.1281 322.5,73.1281 324.2,71.5281 C326.8,69.1281 328.3,67.6281 330.5,66.1281 L330.6,66.0281 C336.5,63.2281 339.7,65.0281 341.1,66.3281 C343.2,68.2281 343.8,71.6281 342.7,74.5281 C341.4,77.7281 337.6,80.7281 333.2,84.3281 C329,87.7281 324.2,91.5281 321.8,95.6281 C320.5,97.8281 319.2,100.2281 317.9,102.4281 C310.9,115.2281 303.7,128.4281 285,128.7281 L285,127.7281 L285,128.7281 C284.8,128.5281 284.7,128.5281 284.6,128.5281" id="Fill-27" fill="#391910"></path>
                <path d="M461.4,323.4281 C449.8,328.4281 441.2,343.1281 444.5,355.8281 C449.6,375.8281 451.1,379.1281 454.5,389.9281 C458.3,402.3281 456.6,412.2281 459.7,419.9281 C461.1,425.2281 468.5,426.9281 469.7,421.3281 C470.8,415.4281 466.1,393.4281 470.4,393.9281 C474.7,394.4281 475.7,425.9281 481,435.4281 C485.6,441.7281 490.8,443.6281 491,434.5281 C491.3,424.3281 482.4,397.1281 487.6,396.8281 C492.8,396.5281 496.7,428.4281 506.1,436.4281 C512.5,442.2281 516.1,438.3281 515.5,432.0281 C514.6,423.3281 499.4,395.5281 503.6,392.4281 C507.8,389.3281 518.4,411.4281 525.4,418.3281 C532,424.0281 537.1,420.1281 534.7,413.0281 C530.1,400.2281 518.6,386.7281 512.1,373.2281 C510.2,369.3281 503.3,361.4281 505.3,357.5281 C506.3,355.5281 509.3,354.9281 511.6,354.8281 C521.4,357.9281 524.2,359.4281 528.4,360.1281 C538.5,360.3281 538.8,352.7281 535.2,349.1281 C530.5,344.6281 515.6,344.0281 507.6,338.4281 C493.7,328.9281 481.1,314.9281 461.4,323.4281" id="Fill-28" fill="#3E8E18"></path>
                <path d="M481.7,434.9281 C484.5,438.7281 486.9,440.1281 488.1,439.7281 C489.2,439.4281 489.8,437.5281 489.9,434.5281 C490,430.5281 488.7,423.7281 487.3,417.1281 C485.1,406.0281 483.9,399.0281 485.7,396.7281 C486.1,396.2281 486.7,395.8281 487.4,395.8281 L487.5,395.8281 C490.5,395.8281 492.3,401.2281 495.5,411.4281 C498.3,420.4281 501.8,431.5281 506.6,435.6281 C509,437.8281 511.2,438.7281 512.6,438.0281 C514,437.3281 514.7,435.0281 514.4,432.1281 C514.1,428.6281 511.2,421.7281 508.4,414.9281 C503.1,401.9281 499.9,393.8281 502.9,391.6281 C503.5,391.2281 504.2,391.0281 504.9,391.1281 C507.9,391.6281 511.5,396.8281 517,405.3281 C520.1,410.1281 523.3,415.0281 525.9,417.5281 C528.5,419.8281 531.2,420.5281 532.7,419.5281 C534.1,418.5281 534.5,416.1281 533.5,413.3281 C531,406.3281 526.3,399.1281 521.4,391.4281 C517.6,385.6281 513.8,379.5281 510.9,373.6281 C510.4,372.6281 509.5,371.2281 508.5,369.7281 C505.6,365.3281 502.4,360.3281 504.1,357.1281 C505.4,354.6281 508.7,354.0281 511.2,353.8281 L511.4,353.8281 L511.6,353.9281 C515.6,355.2281 518.4,356.2281 520.7,357.0281 C523.9,358.1281 525.9,358.8281 528.2,359.2281 C532.1,359.3281 534.7,358.1281 535.7,355.9281 C536.5,354.0281 535.9,351.6281 534.3,349.9281 C532.2,347.9281 527.5,346.7281 522.5,345.3281 C517.1,343.9281 511,342.3281 506.8,339.3281 C504.7,337.8281 502.5,336.2281 500.4,334.6281 C488.7,325.7281 477.7,317.3281 461.6,324.3281 C449.9,329.3281 442.3,343.9281 445.2,355.5281 C449,370.3281 450.7,375.8281 452.8,382.2281 C453.5,384.4281 454.3,386.7281 455.1,389.6281 C457.1,396.1281 457.6,401.9281 458,407.0281 C458.4,411.8281 458.8,415.9281 460.2,419.5281 L460.2,419.6281 C460.9,422.2281 463.4,423.8281 465.4,423.7281 C466.9,423.7281 468,422.7281 468.3,421.1281 C468.7,419.0281 468.2,414.3281 467.8,409.8281 C467,400.9281 466.6,395.3281 468.4,393.5281 C468.9,393.0281 469.4,392.8281 470.1,392.9281 C472.9,393.2281 474.1,399.6281 476,411.9281 C477.7,420.6281 479.3,430.4281 481.7,434.9281 M487.7,441.8281 C485.5,441.8281 482.8,439.8281 480.1,436.1281 L480,436.0281 C477.4,431.2281 475.8,421.6281 474.3,412.3281 C473.2,405.6281 471.6,395.5281 470.1,395.0281 C468.8,395.7281 469.6,405.1281 470.1,409.7281 C470.6,414.6281 471,419.2281 470.6,421.6281 C470,424.2281 468.2,425.8281 465.8,425.8281 L465.7,425.8281 C463,425.8281 459.7,423.9281 458.7,420.3281 C457.2,416.5281 456.8,412.2281 456.4,407.3281 C456,402.3281 455.5,396.6281 453.5,390.3281 C452.6,387.5281 451.9,385.2281 451.2,383.0281 C449.1,376.6281 447.3,371.0281 443.5,356.2281 C440.3,343.7281 448.5,328.0281 461,322.6281 C478.2,315.2281 490.2,324.4281 501.8,333.2281 C503.9,334.8281 506,336.4281 508.1,337.9281 C512,340.7281 517.9,342.2281 523.1,343.6281 C528.6,345.0281 533.3,346.3281 535.7,348.7281 C537.9,350.9281 538.7,354.3281 537.6,356.9281 C536.9,358.6281 534.6,361.5281 528.2,361.4281 L528.1,361.4281 C525.5,361.0281 523.5,360.2281 520.2,359.1281 C518,358.3281 515.2,357.3281 511.4,356.1281 C509.7,356.2281 507,356.6281 506.1,358.3281 C505,360.5281 508.1,365.4281 510.4,368.9281 C511.4,370.4281 512.4,371.9281 512.9,373.0281 C515.7,378.9281 519.6,384.8281 523.3,390.6281 C528.1,398.0281 533,405.6281 535.6,412.9281 C536.9,416.6281 536.3,419.9281 534,421.4281 C531.6,423.0281 528.1,422.2281 524.7,419.3281 C521.9,416.5281 518.6,411.5281 515.4,406.7281 C511.6,400.9281 506.9,393.8281 504.6,393.4281 C504.4,393.4281 504.2,393.4281 504.2,393.5281 C502.4,394.9281 507.4,407.1281 510.4,414.5281 C513.4,421.7281 516.1,428.5281 516.5,432.3281 C516.9,436.1281 515.8,439.0281 513.6,440.1281 C512.1,440.9281 509.4,441.1281 505.4,437.5281 C500.2,433.1281 496.8,422.1281 493.7,412.4281 C491.9,406.7281 489.3,398.2281 487.6,398.2281 C487.5,398.2281 487.5,398.2281 487.4,398.3281 C486,400.1281 487.9,409.5281 489.4,417.1281 C490.7,423.8281 492.1,430.7281 492,434.9281 C491.9,439.0281 490.8,441.4281 488.8,442.0281 C488.4,441.7281 488.1,441.8281 487.7,441.8281" id="Fill-29" fill="#391910"></path>
                <path d="M416.4,180.928 C423.1,191.628 439,197.828 451,192.728 C470,184.628 473,182.628 483.2,177.628 C494.8,172.028 505,172.128 512,167.928 C517,165.728 517.6,158.128 511.9,157.828 C505.9,157.628 484.9,165.628 484.7,161.328 C484.5,157.028 515.5,151.128 524.1,144.528 C529.6,139.028 530.7,133.628 521.6,134.828 C511.4,136.128 486,149.028 484.9,144.028 C483.9,138.928 514.7,130.228 521.1,119.728 C525.9,112.528 521.4,109.528 515.4,111.028 C506.9,113.228 481.8,132.528 478.1,128.828 C474.4,125.128 494.6,111.228 500.4,103.328 C505,96.028 500.4,91.528 493.8,94.928 C481.9,101.428 470.3,114.928 457.9,123.328 C454.3,125.728 447.6,133.828 443.5,132.428 C441.3,131.728 440.3,128.828 439.8,126.628 C441.4,116.428 442.4,113.428 442.5,109.228 C441.2,99.228 433.6,100.028 430.6,104.128 C426.9,109.428 428.6,124.228 424.3,133.028 C416.9,148.228 405,162.828 416.4,180.928" id="Fill-30" fill="#3E8E18"></path>
                <path d="M436.1,102.3281 C434.4,102.3281 432.6,103.2281 431.5,104.8281 C429.9,107.2281 429.3,112.0281 428.8,117.1281 C428.2,122.6281 427.6,128.9281 425.3,133.5281 C424.1,135.8281 422.9,138.2281 421.6,140.5281 C414.6,153.4281 408,165.6281 417.3,180.4281 C424.1,191.2281 439.7,196.5281 450.7,191.8281 C464.7,185.8281 469.9,183.2281 475.9,180.2281 C478,179.1281 480.2,178.1281 482.8,176.8281 C488.9,173.8281 494.6,172.5281 499.6,171.2281 C504.3,170.1281 508.3,169.1281 511.6,167.1281 L511.7,167.0281 C514.2,165.9281 515.3,163.2281 515,161.3281 C514.7,159.8281 513.6,158.9281 511.9,158.8281 C509.8,158.8281 505.2,159.9281 500.8,161.0281 C492.1,163.2281 486.6,164.4281 484.6,162.9281 C484.1,162.5281 483.8,162.0281 483.8,161.3281 C483.7,158.5281 489.8,156.3281 501.6,152.5281 C509.9,149.8281 519.4,146.8281 523.5,143.6281 C526.8,140.3281 527.8,137.7281 527.3,136.6281 C526.8,135.6281 524.8,135.3281 521.9,135.6281 C518,136.1281 511.4,138.5281 505.1,140.8281 C494.4,144.7281 487.8,147.0281 485.2,145.5281 C484.6,145.2281 484.2,144.6281 484.1,144.0281 C483.5,141.0281 488.5,138.4281 498.3,133.6281 C506.7,129.5281 517.2,124.3281 520.5,118.9281 C522.3,116.2281 522.8,113.9281 521.9,112.6281 C521,111.3281 518.6,111.0281 515.8,111.7281 C512.4,112.6281 506,116.5281 499.7,120.2281 C487.6,127.5281 480.1,131.8281 477.5,129.2281 C477,128.7281 476.7,128.0281 476.7,127.3281 C476.8,124.3281 481.3,119.9281 488.9,113.1281 C493.1,109.3281 497.5,105.3281 499.6,102.4281 C501.4,99.5281 501.8,96.7281 500.5,95.3281 C499.3,94.0281 496.9,94.1281 494.3,95.5281 C487.7,99.1281 481.3,104.8281 474.6,110.8281 C469.4,115.4281 464.1,120.2281 458.6,123.9281 C457.7,124.5281 456.4,125.7281 455.1,126.8281 C451.2,130.3281 446.8,134.3281 443.3,133.1281 C440.7,132.2281 439.5,129.1281 439,126.6281 L439,126.4281 L439,126.2281 C439.6,122.1281 440.2,119.1281 440.6,116.8281 C441.2,113.5281 441.6,111.4281 441.7,109.0281 C441.2,105.1281 439.6,102.7281 437.3,102.1281 C436.8,102.3281 436.4,102.3281 436.1,102.3281 M441.9,195.5281 C431.8,195.5281 421.1,190.1281 415.6,181.5281 C405.7,165.7281 412.9,152.4281 419.8,139.6281 C421,137.3281 422.3,135.0281 423.5,132.7281 C425.6,128.4281 426.3,122.3281 426.8,117.0281 C427.4,111.4281 427.9,106.5281 429.9,103.7281 C431.7,101.2281 434.9,99.9281 437.7,100.6281 C439.5,101.1281 442.8,102.8281 443.6,109.2281 L443.6,109.3281 L443.6,109.4281 C443.6,112.0281 443.2,114.1281 442.5,117.6281 C442.1,119.9281 441.5,122.8281 440.9,126.8281 C441.3,128.4281 442.1,131.1281 443.9,131.7281 C446.3,132.5281 450.6,128.6281 453.7,125.8281 C455.1,124.6281 456.4,123.4281 457.4,122.7281 C462.8,119.0281 468.1,114.3281 473.2,109.7281 C479.8,103.9281 486.5,97.9281 493.3,94.2281 C496.8,92.4281 500.1,92.5281 501.9,94.4281 C503.9,96.5281 503.6,100.1281 501.2,103.9281 C498.9,107.1281 494.5,111.1281 490.2,115.0281 C485.1,119.6281 478.7,125.3281 478.7,127.7281 C478.7,127.9281 478.8,128.0281 478.9,128.1281 C480.5,129.7281 491.9,122.9281 498.7,118.8281 C505.4,114.8281 511.7,111.0281 515.3,110.0281 C519,109.0281 522.1,109.7281 523.5,111.7281 C524.5,113.1281 525.1,115.7281 522.1,120.2281 C518.5,126.0281 508.2,131.1281 499.1,135.6281 C493.8,138.2281 485.7,142.2281 486,143.8281 C486,143.9281 486,143.9281 486.1,144.0281 C488.1,145.1281 497.1,141.8281 504.3,139.2281 C510.7,136.9281 517.3,134.4281 521.5,133.9281 C525.5,133.4281 528.1,134.1281 529,136.0281 C530.1,138.2281 528.6,141.6281 524.8,145.4281 L524.7,145.5281 C520.4,148.8281 511.1,151.8281 502.2,154.7281 C495.8,156.8281 486,159.9281 485.7,161.5281 C486.6,162.7281 495.8,160.4281 500.2,159.3281 C505,158.1281 509.5,156.9281 511.9,157.0281 C514.6,157.2281 516.4,158.7281 516.8,161.1281 C517.3,163.7281 515.9,167.4281 512.4,169.0281 C508.9,171.1281 504.7,172.1281 499.9,173.3281 C495,174.5281 489.4,175.9281 483.5,178.7281 C480.9,180.0281 478.7,181.1281 476.6,182.1281 C470.5,185.1281 465.3,187.8281 451.3,193.8281 C448.5,194.9281 445.2,195.5281 441.9,195.5281" id="Fill-31" fill="#391910"></path>
                <polygon id="Fill-32" fill="#391910" points="214.9539 331.652 218.7799 331.652 218.7799 346.947 232.6929 346.947 232.6929 331.652 236.5189 331.652 236.5189 369.027 232.6929 369.027 232.6929 351.202 218.7799 351.202 218.7799 369.027 214.9539 369.027"></polygon>
                <path d="M243.6492,365.0024 C244.0842,364.4274 244.5192,364.1974 245.1272,364.1974 C245.7362,364.1974 246.1712,364.4274 246.6062,365.0024 C247.0402,365.5774 247.2142,366.1524 247.2142,366.9574 C247.2142,367.7624 247.0402,368.3374 246.6062,368.9124 C246.1712,369.4874 245.7362,369.7174 245.1272,369.7174 C244.6062,369.7174 244.0842,369.4874 243.6492,368.9124 C243.2142,368.3374 243.0402,367.6474 243.0402,366.9574 C243.0402,366.1524 243.2142,365.5774 243.6492,365.0024" id="Fill-33" fill="#391910"></path>
                <path d="M268.2577,352.5823 C268.2577,350.0523 267.7357,348.0973 266.6927,346.6023 C265.6487,345.1073 264.2577,344.3023 262.6057,344.3023 C260.6927,344.3023 259.1277,344.9923 257.9097,346.4873 C256.7797,347.9823 256.0837,349.9373 255.9097,352.5823 L268.2577,352.5823 Z M271.7357,353.8473 L271.7357,356.1473 L255.7357,356.1473 C255.9097,359.3673 256.6057,361.7823 257.9097,363.3923 C259.2147,365.0023 261.0407,365.9223 263.3017,365.9223 C264.6057,365.9223 265.9097,365.6923 267.2147,365.2323 C268.5187,364.7723 269.7357,364.1973 270.9537,363.2773 L270.9537,367.6473 C269.7357,368.3373 268.4317,368.9123 267.1277,369.2573 C265.8227,369.6023 264.5187,369.8323 263.1277,369.8323 C259.7357,369.8323 257.0407,368.5673 255.1277,365.9223 C253.1277,363.2773 252.1707,359.8273 252.1707,355.3423 C252.1707,350.7423 253.1277,347.0623 254.9537,344.4173 C256.8667,341.7723 259.3887,340.3923 262.5187,340.3923 C265.3877,340.3923 267.6487,341.6573 269.3007,344.0723 C270.9537,346.3723 271.7357,349.7073 271.7357,353.8473 L271.7357,353.8473 Z" id="Fill-34" fill="#391910"></path>
                <path d="M277.2141,365.0024 C277.6491,364.4274 278.0841,364.1974 278.6921,364.1974 C279.3011,364.1974 279.7361,364.4274 280.1701,365.0024 C280.6051,365.5774 280.7791,366.1524 280.7791,366.9574 C280.7791,367.7624 280.6051,368.3374 280.1701,368.9124 C279.7361,369.4874 279.3011,369.7174 278.6921,369.7174 C278.1701,369.7174 277.6491,369.4874 277.2141,368.9124 C276.7791,368.3374 276.6051,367.6474 276.6051,366.9574 C276.5181,366.1524 276.7791,365.5774 277.2141,365.0024" id="Fill-35" fill="#391910"></path>
                <polygon id="Fill-36" fill="#391910" points="287.127 369.142 290.605 369.142 290.605 330.157 287.127 330.157"></polygon>
                <path d="M297.6486,365.0024 C298.0836,364.4274 298.5186,364.1974 299.1266,364.1974 C299.7356,364.1974 300.1706,364.4274 300.6056,365.0024 C301.0396,365.5774 301.2136,366.1524 301.2136,366.9574 C301.2136,367.7624 301.0396,368.3374 300.6056,368.9124 C300.1706,369.4874 299.7356,369.7174 299.1266,369.7174 C298.6056,369.7174 298.0836,369.4874 297.6486,368.9124 C297.2136,368.3374 297.0396,367.6474 297.0396,366.9574 C297.0396,366.1524 297.2136,365.5774 297.6486,365.0024" id="Fill-37" fill="#391910"></path>
                <path d="M318.3441,330.157 L318.3441,333.952 L315.0401,333.952 C313.8221,333.952 312.9531,334.297 312.4311,334.987 C311.9091,335.677 311.7351,336.827 311.7351,338.552 L311.7351,341.082 L317.4741,341.082 L317.4741,344.647 L311.7351,344.647 L311.7351,369.142 L308.2571,369.142 L308.2571,344.647 L304.9531,344.647 L304.9531,341.082 L308.2571,341.082 L308.2571,339.127 C308.2571,336.022 308.7791,333.722 309.9091,332.342 C311.0401,330.962 312.7791,330.157 315.1271,330.157 L318.3441,330.157 Z" id="Fill-38" fill="#391910"></path>
                <path d="M320.9527,365.0024 C321.3877,364.4274 321.8227,364.1974 322.431,364.1974 C323.04,364.1974 323.475,364.4274 323.91,365.0024 C324.344,365.5774 324.518,366.1524 324.518,366.9574 C324.518,367.7624 324.344,368.3374 323.91,368.9124 C323.475,369.4874 323.04,369.7174 322.431,369.7174 C321.9097,369.7174 321.3877,369.4874 320.9527,368.9124 C320.5177,368.3374 320.3437,367.6474 320.3437,366.9574 C320.3437,366.1524 320.5177,365.5774 320.9527,365.0024" id="Fill-39" fill="#391910"></path>
                <path d="M347.474,353.0423 L347.474,369.0273 L343.996,369.0273 L343.996,364.7723 C343.213,366.4973 342.17,367.7623 341.039,368.5673 C339.822,369.3723 338.431,369.7173 336.692,369.7173 C334.518,369.7173 332.779,368.9123 331.474,367.3023 C330.17,365.6923 329.561,363.5073 329.561,360.8623 C329.561,357.7573 330.344,355.3423 331.909,353.7323 C333.474,352.1223 335.909,351.3173 339.039,351.3173 L343.909,351.3173 L343.909,350.8573 C343.909,348.7873 343.387,347.0623 342.344,345.9123 C341.3,344.7623 339.822,344.1873 337.909,344.1873 C336.692,344.1873 335.561,344.4173 334.344,344.7623 C333.213,345.1073 332.083,345.6823 331.039,346.4873 L331.039,342.2323 C332.344,341.5423 333.561,341.0823 334.779,340.7373 C335.996,340.3923 337.126,340.2773 338.257,340.2773 C341.3,340.2773 343.648,341.3123 345.126,343.3823 C346.604,345.4523 347.474,348.7873 347.474,353.0423 L347.474,353.0423 Z M340.518,354.9973 C337.735,354.9973 335.735,355.4573 334.692,356.2623 C333.648,357.0673 333.039,358.5623 333.039,360.6323 C333.039,362.2423 333.474,363.6223 334.257,364.5423 C335.039,365.4623 336.17,365.9223 337.561,365.9223 C339.474,365.9223 341.039,365.0023 342.17,363.2773 C343.3,361.4373 343.909,359.0223 343.909,356.0323 L343.909,354.9973 L340.518,354.9973 Z" id="Fill-40" fill="#391910"></path>
                <path d="M354.344,365.0024 C354.779,364.4274 355.214,364.1974 355.822,364.1974 C356.431,364.1974 356.866,364.4274 357.301,365.0024 C357.735,365.5774 357.909,366.1524 357.909,366.9574 C357.909,367.7624 357.735,368.3374 357.301,368.9124 C356.866,369.4874 356.431,369.7174 355.822,369.7174 C355.301,369.7174 354.779,369.4874 354.344,368.9124 C353.909,368.3374 353.735,367.6474 353.735,366.9574 C353.735,366.1524 353.996,365.5774 354.344,365.0024" id="Fill-41" fill="#391910"></path>
                <path d="M131.1417,220.6149 L132.9417,220.9149 C132.9417,220.9149 158.9417,224.2149 167.4417,231.8149 C170.8417,234.9149 173.2417,239.5149 174.4417,243.6149 C175.0417,245.7149 175.3417,247.6149 175.1417,249.3149 C175.0417,250.3149 174.6417,251.2149 174.1417,252.0149 C175.7417,254.2149 177.0417,256.5149 177.9417,259.2149 L175.2417,260.1149 C175.2417,260.1149 175.2417,260.0149 175.1417,260.0149 C174.1417,257.9149 172.7417,255.7149 171.6417,253.9149 C168.4417,255.6149 164.3417,256.3149 159.8417,255.9149 C154.8417,255.5149 149.4417,253.7149 144.9417,250.5149 C135.5417,242.0149 132.1417,231.6149 131.1417,220.6149" id="Fill-42" fill="#3E8E18"></path>
                <path d="M47.7417,205.2149 L48.4417,206.9149 C48.4417,206.9149 56.5417,231.9149 65.6417,238.7149 C69.2417,241.5149 74.2417,243.0149 78.5417,243.4149 C80.7417,243.6149 82.6417,243.5149 84.3417,243.0149 C85.3417,242.7149 86.1417,242.2149 86.8417,241.5149 C89.2417,242.6149 91.8417,243.5149 94.6417,243.9149 L95.0417,241.0149 L94.9417,241.0149 C92.7417,240.4149 90.3417,239.5149 88.2417,238.7149 C89.3417,235.2149 89.2417,231.0149 88.0417,226.8149 C86.6417,221.9149 83.9417,217.0149 79.9417,213.2149 C69.6417,205.5149 58.7417,204.1149 47.7417,205.2149" id="Fill-43" fill="#3E8E18"></path>
                <path d="M83.9417,240.1149 C82.3417,240.7149 80.2417,240.7149 78.8417,240.5149 C75.0417,240.2149 70.4417,238.7149 67.3417,236.4149 C59.7417,230.7149 54.5417,218.4149 50.1417,206.6149 C62.0417,207.3149 69.8417,208.5149 78.3417,215.5149 C82.0417,218.7149 83.9417,223.1149 85.1417,227.5149 C86.1417,231.3149 86.2417,234.8149 85.4417,237.6149 C78.0417,233.2149 71.5417,225.8149 63.8417,219.2149 C73.3417,231.3149 81.0417,238.4149 83.9417,240.1149 M172.2417,249.6149 C169.9417,247.1149 161.6417,240.8149 147.9417,233.8149 C155.8417,240.2149 164.4417,245.1149 170.0417,251.6149 C167.5417,252.9149 163.9417,253.5149 160.1417,253.2149 C155.6417,252.8149 150.9417,251.9149 147.0417,248.8149 C138.5417,241.8149 135.8417,234.3149 133.0417,222.8149 C145.4417,224.9149 158.4417,227.7149 165.5417,234.1149 C168.3417,236.6149 170.6417,240.9149 171.7417,244.6149 C172.0417,245.8149 172.4417,247.9149 172.2417,249.6149 M194.8417,257.6149 C189.4417,257.6149 183.6417,257.9149 177.6417,258.3149 C176.7417,256.0149 175.5417,254.0149 174.2417,252.0149 C174.7417,251.2149 175.1417,250.3149 175.2417,249.3149 C175.4417,247.6149 175.1417,245.6149 174.5417,243.6149 C173.3417,239.4149 170.9417,234.8149 167.5417,231.8149 C159.1417,224.2149 133.0417,220.9149 133.0417,220.9149 L131.2417,220.6149 C132.2417,231.6149 135.6417,242.0149 145.1417,250.6149 C149.6417,253.8149 154.9417,255.6149 160.0417,256.0149 C164.4417,256.4149 168.6417,255.7149 171.8417,254.0149 C172.7417,255.4149 173.7417,257.0149 174.6417,258.6149 C167.3417,259.1149 159.8417,259.5149 152.3417,259.4149 C137.5417,259.2149 125.5417,259.4149 111.0417,249.5149 C98.4417,241.9149 91.6417,239.4149 88.4417,238.6149 C89.4417,235.2149 89.3417,231.1149 88.1417,226.9149 C86.7417,222.0149 84.0417,217.1149 80.0417,213.3149 C69.8417,205.6149 58.9417,204.2149 47.9417,205.3149 L48.6417,207.0149 C48.6417,207.0149 56.7417,232.0149 65.8417,238.8149 C69.4417,241.6149 74.4417,243.1149 78.7417,243.5149 C80.9417,243.7149 82.8417,243.6149 84.5417,243.1149 C85.2417,242.9149 85.8417,242.6149 86.3417,242.2149 C89.1417,243.4149 95.9417,245.3149 108.2417,253.4149 C121.3417,262.1149 136.9417,264.2149 152.2417,264.4149 C167.5417,264.6149 182.6417,262.7149 195.0417,262.7149 C207.5417,262.7149 216.1417,263.8149 220.9417,270.3149 C222.1417,269.4149 223.5417,268.3149 224.9417,267.3149 C218.4417,258.6149 207.7417,257.6149 194.8417,257.6149" id="Fill-44" fill="#391910"></path>
            </g>
        </g>
    </g>
</svg>