<?xml version="1.0" encoding="utf-8"?>
<svg version="1.1" xmlns="http://www.w3.org/2000/svg" xmlns:xlink="http://www.w3.org/1999/xlink" x="0px" y="0px"
	 viewBox="0 0 24 24" style="enable-background:new 0 0 24 24;" xml:space="preserve">
<style type="text/css">
	.st0{
		fill:#FFFFFF;
	}
</style>
<path class="st0" d="M12,0C5.4,0,0,5.4,0,12s5.4,12,12,12s12-5.4,12-12S18.6,0,12,0z M21.4,17.7C21.4,17.7,21.3,17.7,21.4,17.7
	l-4.1,0c0.7-1.6,1.1-3.4,1.2-5.2h4.4c0,0,0,0,0.1,0C22.9,14.4,22.3,16.2,21.4,17.7z M2.6,17.7c-0.9-1.5-1.5-3.3-1.6-5.2
	c0,0,0,0,0.1,0h4.5c0.1,1.8,0.5,3.6,1.2,5.2L2.6,17.7C2.7,17.7,2.6,17.7,2.6,17.7z M2.6,6.3C2.6,6.3,2.7,6.3,2.6,6.3l4.1,0
	C6,7.9,5.6,9.7,5.6,11.5H1.1c0,0-0.1,0-0.1,0C1.1,9.6,1.7,7.8,2.6,6.3z M12.5,5.3V1.6c1.3,1.1,2.4,2.3,3.2,3.7H12.5z M16.2,6.3
	c0.8,1.6,1.2,3.4,1.3,5.2h-5V6.3H16.2z M11.5,1.5v3.8H8.3C9.1,3.9,10.2,2.6,11.5,1.5z M11.5,6.3v5.2H6.6C6.6,9.7,7,7.9,7.8,6.3H11.5
	z M6.6,12.5h4.9v5.2H7.8C7.1,16.1,6.6,14.3,6.6,12.5z M11.5,18.7v3.7c-1.3-1-2.3-2.3-3.1-3.7H11.5z M12.5,22.4v-3.7h3.2
	C14.9,20.1,13.8,21.4,12.5,22.4z M12.5,17.7v-5.2h5c-0.1,1.8-0.5,3.6-1.3,5.2H12.5z M22.9,11.5h-4.4c-0.1-1.8-0.5-3.6-1.2-5.2h4
	c0,0,0.1,0,0.1,0C22.3,7.8,22.9,9.6,22.9,11.5C23,11.5,22.9,11.5,22.9,11.5z M20.7,5.3h-3.9c-0.8-1.6-2-3-3.4-4.2
	C16.4,1.5,19,3,20.7,5.3z M10.4,1.1C9.1,2.3,8,3.7,7.1,5.3H3.3C5,3.1,7.5,1.5,10.4,1.1z M3.3,18.7h3.9c0.8,1.6,2,3,3.4,4.2
	C7.6,22.5,5,21,3.3,18.7z M13.5,22.9c1.4-1.2,2.5-2.6,3.3-4.2h3.9C19,20.9,16.5,22.5,13.5,22.9z"/>
</svg>
