<?xml version="1.0" encoding="utf-8"?>
<!-- Generator: Adobe Illustrator 26.3.1, SVG Export Plug-In . SVG Version: 6.00 Build 0)  -->
<svg version="1.1" id="Ebene_1" xmlns="http://www.w3.org/2000/svg" xmlns:xlink="http://www.w3.org/1999/xlink" x="0px" y="0px"
	 viewBox="0 0 40 40" style="enable-background:new 0 0 40 40;" xml:space="preserve">
<style type="text/css">
	.st0{fill-rule:evenodd;clip-rule:evenodd;fill:#FFFFFF;}
</style>
<path class="st0" d="M0,20C0,9,9,0,20,0s20,9,20,20c0,11-9,20-20,20S0,31,0,20z M17.8,22.3L17.5,27c0.5,0,0.7-0.2,0.9-0.4l2.2-2.1
	l4.6,3.4c0.8,0.5,1.4,0.2,1.7-0.8l3-14.1l0,0c0.3-1.2-0.5-1.7-1.3-1.4l-17.7,6.8c-1.2,0.5-1.2,1.1-0.2,1.5l4.5,1.4l10.5-6.6
	c0.5-0.3,0.9-0.1,0.6,0.2L17.8,22.3z"/>
</svg>
